#################################### 
# Matrix Size= (20,20,30)
# Resol      = (2,2,3)
# VoxelSize  = (10,10,10)
# nbVal      = 12
#################################### 
0 4.36665e-25 
0 1.17998e-26 

2.47546e-24 0 
8.86353e-27 6.68764e-25 

0 0 
0 0 

