#################################### 
# Matrix Size= (20,20,30)
# Resol      = (2,2,3)
# VoxelSize  = (10,10,10)
# nbVal      = 12
#################################### 
0 6.60806e-13 
0 1.08627e-13 

1.57336e-12 0 
9.41463e-14 8.1778e-13 

0 0 
0 0 

